…
Now, how to assign names to the category ids.

The nodes and edges are shown separately, with the nodes numbered (those numbers are used in the edges).

Extracting the nodes and edges

tidygraph uses the same pipeline ideas as the tidyverse, but extra care is required because a tidy graph object has both nodes and edges in it. An extra verb activate lets you specify which one you would like to be “primary” (but you can also access the other one). Piping the output of activate into as_tibble lets you save the nodes or edges as a data frame, separately:

nodes = categories_g %>%
  activate(nodes) %>%
  as_tibble() %>%
  mutate(node_number=row_number()) %>%
  print(n=10)

## # A tibble: 1,401 x 2
##    name  node_number
##    <chr>       <int>
##  1 1               1
##  2 2               2
##  3 4               3
##  4 7               4
##  5 8               5
##  6 10              6
##  7 11              7
##  8 12              8
##  9 13              9
## 10 14             10
## # ... with 1,391 more rows

edges = categories_g %>%
  activate(edges) %>%
  as_tibble() %>% print(n=10)

## # A tibble: 1,380 x 5
##     from    to subject                    id parent_id
##    <int> <int> <chr>                   <int>     <int>
##  1     1  1381 Biophysics                  1        48
##  2     2  1382 Uncategorized               2        30
##  3     3  1383 Biochemistry                4        38
##  4     4  1381 Medicine                    7        48
##  5     5  1381 Microbiology                8        48
##  6     6  1381 Anatomy                    10        48
##  7     7  1381 Behavioral Neuroscience    11        48
##  8     8  1381 Cell Biology               12        48
##  9     9  1381 Genetics                   13        48
## 10    10  1381 Molecular Biology          14        48
## # ... with 1,370 more rows

I saved the node numbers as well as names into the nodes data frame. This lets me look up the names of the nodes referred to in the edges, to convince myself that I have something sensible:

edges %>%
  left_join(nodes,by=c("from"="node_number")) %>%
  left_join(nodes,by=c("to"="node_number")) %>%
  print(n=10)

## # A tibble: 1,380 x 7
##     from    to subject                    id parent_id name.x name.y
##    <int> <int> <chr>                   <int>     <int> <chr>  <chr> 
##  1     1  1381 Biophysics                  1        48 1      48    
##  2     2  1382 Uncategorized               2        30 2      30    
##  3     3  1383 Biochemistry                4        38 4      38    
##  4     4  1381 Medicine                    7        48 7      48    
##  5     5  1381 Microbiology                8        48 8      48    
##  6     6  1381 Anatomy                    10        48 10     48    
##  7     7  1381 Behavioral Neuroscience    11        48 11     48    
##  8     8  1381 Cell Biology               12        48 12     48    
##  9     9  1381 Genetics                   13        48 13     48    
## 10    10  1381 Molecular Biology          14        48 14     48    
## # ... with 1,370 more rows
…
